<svg xmlns="http://www.w3.org/2000/svg" viewBox="0 0 19 18">
  <defs>
    <style>
      .cls-1 {
        fill: #3b3a3e;
        font-size: 18px;
        font-family: FontAwesome5ProLight, "Font Awesome 5 Pro";
        opacity: 0.7;
      }
    </style>
  </defs>
  <text id="envelope" class="cls-1" transform="translate(0 16)"><tspan x="0" y="0">envelope</tspan></text>
</svg>
