<svg xmlns="http://www.w3.org/2000/svg" viewBox="0 0 19 19">
  <defs>
    <style>
      .cls-1 {
        fill: #fff;
        font-size: 18px;
        font-family: FontAwesome5ProRegular, "Font Awesome 5 Pro";
      }
    </style>
  </defs>
  <text id="search" class="cls-1" transform="translate(0 16)"><tspan x="0" y="0">search</tspan></text>
</svg>
