<svg xmlns="http://www.w3.org/2000/svg" viewBox="0 0 60 60">
  <defs>
    <style>
      .cls-1, .cls-3 {
        fill: none;
      }

      .cls-1 {
        stroke: #fff;
        stroke-width: 2px;
      }

      .cls-2 {
        stroke: none;
      }
    </style>
  </defs>
  <g id="Ellipse_10" data-name="Ellipse 10" class="cls-1">
    <circle class="cls-2" cx="30" cy="30" r="30"/>
    <circle class="cls-3" cx="30" cy="30" r="29"/>
  </g>
</svg>
